6

C     -1.794370    0.925810    0.000000
C     -0.518700    1.282200    0.000000
H     -2.373520    0.909020    0.920020
H     -2.298370    0.640000   -0.920020
H      0.242647    0.646857    0.445904
H     -0.196888    2.220147   -0.445911
